%!PS-Adobe-3.0 EPSF-3.0
%%Creator: graphviz version 2.32.0 (20130801.1934)
%%Title: %3
%%Pages: 1
%%BoundingBox: 36 36 386 224
%%EndComments
save
%%BeginProlog
/DotDict 200 dict def
DotDict begin

/setupLatin1 {
mark
/EncodingVector 256 array def
 EncodingVector 0

ISOLatin1Encoding 0 255 getinterval putinterval
EncodingVector 45 /hyphen put

% Set up ISO Latin 1 character encoding
/starnetISO {
        dup dup findfont dup length dict begin
        { 1 index /FID ne { def }{ pop pop } ifelse
        } forall
        /Encoding EncodingVector def
        currentdict end definefont
} def
/Times-Roman starnetISO def
/Times-Italic starnetISO def
/Times-Bold starnetISO def
/Times-BoldItalic starnetISO def
/Helvetica starnetISO def
/Helvetica-Oblique starnetISO def
/Helvetica-Bold starnetISO def
/Helvetica-BoldOblique starnetISO def
/Courier starnetISO def
/Courier-Oblique starnetISO def
/Courier-Bold starnetISO def
/Courier-BoldOblique starnetISO def
cleartomark
} bind def

%%BeginResource: procset graphviz 0 0
/coord-font-family /Times-Roman def
/default-font-family /Times-Roman def
/coordfont coord-font-family findfont 8 scalefont def

/InvScaleFactor 1.0 def
/set_scale {
       dup 1 exch div /InvScaleFactor exch def
       scale
} bind def

% styles
/solid { [] 0 setdash } bind def
/dashed { [9 InvScaleFactor mul dup ] 0 setdash } bind def
/dotted { [1 InvScaleFactor mul 6 InvScaleFactor mul] 0 setdash } bind def
/invis {/fill {newpath} def /stroke {newpath} def /show {pop newpath} def} bind def
/bold { 2 setlinewidth } bind def
/filled { } bind def
/unfilled { } bind def
/rounded { } bind def
/diagonals { } bind def
/tapered { } bind def

% hooks for setting color 
/nodecolor { sethsbcolor } bind def
/edgecolor { sethsbcolor } bind def
/graphcolor { sethsbcolor } bind def
/nopcolor {pop pop pop} bind def

/beginpage {	% i j npages
	/npages exch def
	/j exch def
	/i exch def
	/str 10 string def
	npages 1 gt {
		gsave
			coordfont setfont
			0 0 moveto
			(\() show i str cvs show (,) show j str cvs show (\)) show
		grestore
	} if
} bind def

/set_font {
	findfont exch
	scalefont setfont
} def

% draw text fitted to its expected width
/alignedtext {			% width text
	/text exch def
	/width exch def
	gsave
		width 0 gt {
			[] 0 setdash
			text stringwidth pop width exch sub text length div 0 text ashow
		} if
	grestore
} def

/boxprim {				% xcorner ycorner xsize ysize
		4 2 roll
		moveto
		2 copy
		exch 0 rlineto
		0 exch rlineto
		pop neg 0 rlineto
		closepath
} bind def

/ellipse_path {
	/ry exch def
	/rx exch def
	/y exch def
	/x exch def
	matrix currentmatrix
	newpath
	x y translate
	rx ry scale
	0 0 1 0 360 arc
	setmatrix
} bind def

/endpage { showpage } bind def
/showpage { } def

/layercolorseq
	[	% layer color sequence - darkest to lightest
		[0 0 0]
		[.2 .8 .8]
		[.4 .8 .8]
		[.6 .8 .8]
		[.8 .8 .8]
	]
def

/layerlen layercolorseq length def

/setlayer {/maxlayer exch def /curlayer exch def
	layercolorseq curlayer 1 sub layerlen mod get
	aload pop sethsbcolor
	/nodecolor {nopcolor} def
	/edgecolor {nopcolor} def
	/graphcolor {nopcolor} def
} bind def

/onlayer { curlayer ne {invis} if } def

/onlayers {
	/myupper exch def
	/mylower exch def
	curlayer mylower lt
	curlayer myupper gt
	or
	{invis} if
} def

/curlayer 0 def

%%EndResource
%%EndProlog
%%BeginSetup
14 default-font-family set_font
1 setmiterlimit
% /arrowlength 10 def
% /arrowwidth 5 def

% make sure pdfmark is harmless for PS-interpreters other than Distiller
/pdfmark where {pop} {userdict /pdfmark /cleartomark load put} ifelse
% make '<<' and '>>' safe on PS Level 1 devices
/languagelevel where {pop languagelevel}{1} ifelse
2 lt {
    userdict (<<) cvn ([) cvn load put
    userdict (>>) cvn ([) cvn load put
} if

%%EndSetup
setupLatin1
%%Page: 1 1
%%PageBoundingBox: 36 36 386 224
%%PageOrientation: Portrait
0 0 1 beginpage
gsave
36 36 350 188 boxprim clip newpath
1 1 set_scale 0 rotate 40 41 translate
% node0
gsave
1 setlinewidth
0 0 0 nodecolor
155 162 33.22 18 ellipse_path stroke
0 0 0 nodecolor
14 /Times-Roman set_font
137.5 158.3 moveto 35 (\(8,  - \)) alignedtext
grestore
% node1
gsave
1 setlinewidth
0 0 0 nodecolor
99 90 28.4 18 ellipse_path stroke
0 0 0 nodecolor
14 /Times-Roman set_font
85 86.3 moveto 28 (\(7, -\)) alignedtext
grestore
% node0->node1
gsave
1 setlinewidth
0 0 0 edgecolor
newpath 142.29 145.12 moveto
135.03 136.04 125.79 124.49 117.71 114.39 curveto
stroke
0 0 0 edgecolor
newpath 120.25 111.96 moveto
111.27 106.34 lineto
114.79 116.34 lineto
closepath fill
1 setlinewidth
solid
0 0 0 edgecolor
newpath 120.25 111.96 moveto
111.27 106.34 lineto
114.79 116.34 lineto
closepath stroke
grestore
% node2
gsave
1 setlinewidth
0 0 0 nodecolor
212 90 35.15 18 ellipse_path stroke
0 0 0 nodecolor
14 /Times-Roman set_font
193 86.3 moveto 38 (\(9, 12\)) alignedtext
grestore
% node0->node2
gsave
1 setlinewidth
0 0 0 edgecolor
newpath 167.93 145.12 moveto
175.22 136.17 184.47 124.81 192.61 114.81 curveto
stroke
0 0 0 edgecolor
newpath 195.52 116.79 moveto
199.12 106.82 lineto
190.09 112.37 lineto
closepath fill
1 setlinewidth
solid
0 0 0 edgecolor
newpath 195.52 116.79 moveto
199.12 106.82 lineto
190.09 112.37 lineto
closepath stroke
grestore
% val5
gsave
1 setlinewidth
0 0 0 nodecolor
27 18 27 18 ellipse_path stroke
0 0 0 nodecolor
14 /Times-Roman set_font
23 14.3 moveto 8 (5) alignedtext
grestore
% node1->val5
gsave
1 setlinewidth
0 0 0 edgecolor
newpath 84.08 74.5 moveto
74.04 64.73 60.62 51.69 49.32 40.7 curveto
stroke
0 0 0 edgecolor
newpath 51.51 37.95 moveto
41.9 33.49 lineto
46.63 42.97 lineto
closepath fill
1 setlinewidth
solid
0 0 0 edgecolor
newpath 51.51 37.95 moveto
41.9 33.49 lineto
46.63 42.97 lineto
closepath stroke
grestore
% val7
gsave
1 setlinewidth
0 0 0 nodecolor
99 18 27 18 ellipse_path stroke
0 0 0 nodecolor
14 /Times-Roman set_font
95 14.3 moveto 8 (7) alignedtext
grestore
% node1->val7
gsave
1 setlinewidth
0 0 0 edgecolor
newpath 99 71.7 moveto
99 63.98 99 54.71 99 46.11 curveto
stroke
0 0 0 edgecolor
newpath 102.5 46.1 moveto
99 36.1 lineto
95.5 46.1 lineto
closepath fill
1 setlinewidth
solid
0 0 0 edgecolor
newpath 102.5 46.1 moveto
99 36.1 lineto
95.5 46.1 lineto
closepath stroke
grestore
% val8
gsave
1 setlinewidth
0 0 0 nodecolor
171 18 27 18 ellipse_path stroke
0 0 0 nodecolor
14 /Times-Roman set_font
167 14.3 moveto 8 (8) alignedtext
grestore
% node2->val8
gsave
1 setlinewidth
0 0 0 edgecolor
newpath 202.28 72.41 moveto
197.26 63.83 191.03 53.19 185.45 43.67 curveto
stroke
0 0 0 edgecolor
newpath 188.44 41.85 moveto
180.36 34.99 lineto
182.4 45.39 lineto
closepath fill
1 setlinewidth
solid
0 0 0 edgecolor
newpath 188.44 41.85 moveto
180.36 34.99 lineto
182.4 45.39 lineto
closepath stroke
grestore
% val9
gsave
1 setlinewidth
0 0 0 nodecolor
243 18 27 18 ellipse_path stroke
0 0 0 nodecolor
14 /Times-Roman set_font
239 14.3 moveto 8 (9) alignedtext
grestore
% node2->val9
gsave
1 setlinewidth
0 0 0 edgecolor
newpath 219.5 72.05 moveto
223.08 63.97 227.45 54.12 231.44 45.11 curveto
stroke
0 0 0 edgecolor
newpath 234.72 46.35 moveto
235.56 35.79 lineto
228.32 43.52 lineto
closepath fill
1 setlinewidth
solid
0 0 0 edgecolor
newpath 234.72 46.35 moveto
235.56 35.79 lineto
228.32 43.52 lineto
closepath stroke
grestore
% val12
gsave
1 setlinewidth
0 0 0 nodecolor
315 18 27 18 ellipse_path stroke
0 0 0 nodecolor
14 /Times-Roman set_font
307.5 14.3 moveto 15 (12) alignedtext
grestore
% node2->val12
gsave
1 setlinewidth
0 0 0 edgecolor
newpath 232.35 75.17 moveto
248.33 64.31 270.71 49.1 288.15 37.25 curveto
stroke
0 0 0 edgecolor
newpath 290.46 39.91 moveto
296.76 31.39 lineto
286.53 34.12 lineto
closepath fill
1 setlinewidth
solid
0 0 0 edgecolor
newpath 290.46 39.91 moveto
296.76 31.39 lineto
286.53 34.12 lineto
closepath stroke
grestore
endpage
showpage
grestore
%%PageTrailer
%%EndPage: 1
%%Trailer
end
restore
%%EOF
