%!PS-Adobe-3.0 EPSF-3.0
%%Creator: graphviz version 2.32.0 (20130801.1934)
%%Title: %3
%%Pages: 1
%%BoundingBox: 36 36 458 224
%%EndComments
save
%%BeginProlog
/DotDict 200 dict def
DotDict begin

/setupLatin1 {
mark
/EncodingVector 256 array def
 EncodingVector 0

ISOLatin1Encoding 0 255 getinterval putinterval
EncodingVector 45 /hyphen put

% Set up ISO Latin 1 character encoding
/starnetISO {
        dup dup findfont dup length dict begin
        { 1 index /FID ne { def }{ pop pop } ifelse
        } forall
        /Encoding EncodingVector def
        currentdict end definefont
} def
/Times-Roman starnetISO def
/Times-Italic starnetISO def
/Times-Bold starnetISO def
/Times-BoldItalic starnetISO def
/Helvetica starnetISO def
/Helvetica-Oblique starnetISO def
/Helvetica-Bold starnetISO def
/Helvetica-BoldOblique starnetISO def
/Courier starnetISO def
/Courier-Oblique starnetISO def
/Courier-Bold starnetISO def
/Courier-BoldOblique starnetISO def
cleartomark
} bind def

%%BeginResource: procset graphviz 0 0
/coord-font-family /Times-Roman def
/default-font-family /Times-Roman def
/coordfont coord-font-family findfont 8 scalefont def

/InvScaleFactor 1.0 def
/set_scale {
       dup 1 exch div /InvScaleFactor exch def
       scale
} bind def

% styles
/solid { [] 0 setdash } bind def
/dashed { [9 InvScaleFactor mul dup ] 0 setdash } bind def
/dotted { [1 InvScaleFactor mul 6 InvScaleFactor mul] 0 setdash } bind def
/invis {/fill {newpath} def /stroke {newpath} def /show {pop newpath} def} bind def
/bold { 2 setlinewidth } bind def
/filled { } bind def
/unfilled { } bind def
/rounded { } bind def
/diagonals { } bind def
/tapered { } bind def

% hooks for setting color 
/nodecolor { sethsbcolor } bind def
/edgecolor { sethsbcolor } bind def
/graphcolor { sethsbcolor } bind def
/nopcolor {pop pop pop} bind def

/beginpage {	% i j npages
	/npages exch def
	/j exch def
	/i exch def
	/str 10 string def
	npages 1 gt {
		gsave
			coordfont setfont
			0 0 moveto
			(\() show i str cvs show (,) show j str cvs show (\)) show
		grestore
	} if
} bind def

/set_font {
	findfont exch
	scalefont setfont
} def

% draw text fitted to its expected width
/alignedtext {			% width text
	/text exch def
	/width exch def
	gsave
		width 0 gt {
			[] 0 setdash
			text stringwidth pop width exch sub text length div 0 text ashow
		} if
	grestore
} def

/boxprim {				% xcorner ycorner xsize ysize
		4 2 roll
		moveto
		2 copy
		exch 0 rlineto
		0 exch rlineto
		pop neg 0 rlineto
		closepath
} bind def

/ellipse_path {
	/ry exch def
	/rx exch def
	/y exch def
	/x exch def
	matrix currentmatrix
	newpath
	x y translate
	rx ry scale
	0 0 1 0 360 arc
	setmatrix
} bind def

/endpage { showpage } bind def
/showpage { } def

/layercolorseq
	[	% layer color sequence - darkest to lightest
		[0 0 0]
		[.2 .8 .8]
		[.4 .8 .8]
		[.6 .8 .8]
		[.8 .8 .8]
	]
def

/layerlen layercolorseq length def

/setlayer {/maxlayer exch def /curlayer exch def
	layercolorseq curlayer 1 sub layerlen mod get
	aload pop sethsbcolor
	/nodecolor {nopcolor} def
	/edgecolor {nopcolor} def
	/graphcolor {nopcolor} def
} bind def

/onlayer { curlayer ne {invis} if } def

/onlayers {
	/myupper exch def
	/mylower exch def
	curlayer mylower lt
	curlayer myupper gt
	or
	{invis} if
} def

/curlayer 0 def

%%EndResource
%%EndProlog
%%BeginSetup
14 default-font-family set_font
1 setmiterlimit
% /arrowlength 10 def
% /arrowwidth 5 def

% make sure pdfmark is harmless for PS-interpreters other than Distiller
/pdfmark where {pop} {userdict /pdfmark /cleartomark load put} ifelse
% make '<<' and '>>' safe on PS Level 1 devices
/languagelevel where {pop languagelevel}{1} ifelse
2 lt {
    userdict (<<) cvn ([) cvn load put
    userdict (>>) cvn ([) cvn load put
} if

%%EndSetup
setupLatin1
%%Page: 1 1
%%PageBoundingBox: 36 36 458 224
%%PageOrientation: Portrait
0 0 1 beginpage
gsave
36 36 422 188 boxprim clip newpath
1 1 set_scale 0 rotate 40 41 translate
% node0
gsave
1 setlinewidth
0 0 0 nodecolor
206 162 35.15 18 ellipse_path stroke
0 0 0 nodecolor
14 /Times-Roman set_font
187 158.3 moveto 38 (\(8, 11\)) alignedtext
grestore
% node1
gsave
1 setlinewidth
0 0 0 nodecolor
99 90 28.4 18 ellipse_path stroke
0 0 0 nodecolor
14 /Times-Roman set_font
85 86.3 moveto 28 (\(7, -\)) alignedtext
grestore
% node0->node1
gsave
1 setlinewidth
0 0 0 edgecolor
newpath 185.12 147.34 moveto
168.39 136.4 144.79 120.96 126.52 109.01 curveto
stroke
0 0 0 edgecolor
newpath 128.32 106 moveto
118.04 103.45 lineto
124.49 111.86 lineto
closepath fill
1 setlinewidth
solid
0 0 0 edgecolor
newpath 128.32 106 moveto
118.04 103.45 lineto
124.49 111.86 lineto
closepath stroke
grestore
% node2
gsave
1 setlinewidth
0 0 0 nodecolor
206 90 27 18 ellipse_path stroke
0 0 0 nodecolor
14 /Times-Roman set_font
193.5 86.3 moveto 25 (\(9,-\)) alignedtext
grestore
% node0->node2
gsave
1 setlinewidth
0 0 0 edgecolor
newpath 206 143.7 moveto
206 135.98 206 126.71 206 118.11 curveto
stroke
0 0 0 edgecolor
newpath 209.5 118.1 moveto
206 108.1 lineto
202.5 118.1 lineto
closepath fill
1 setlinewidth
solid
0 0 0 edgecolor
newpath 209.5 118.1 moveto
206 108.1 lineto
202.5 118.1 lineto
closepath stroke
grestore
% node3
gsave
1 setlinewidth
0 0 0 nodecolor
315 90 31.3 18 ellipse_path stroke
0 0 0 nodecolor
14 /Times-Roman set_font
299 86.3 moveto 32 (\(12,-\)) alignedtext
grestore
% node0->node3
gsave
1 setlinewidth
0 0 0 edgecolor
newpath 227.02 147.5 moveto
243.82 136.71 267.55 121.47 286.13 109.54 curveto
stroke
0 0 0 edgecolor
newpath 288.26 112.33 moveto
294.79 103.98 lineto
284.48 106.44 lineto
closepath fill
1 setlinewidth
solid
0 0 0 edgecolor
newpath 288.26 112.33 moveto
294.79 103.98 lineto
284.48 106.44 lineto
closepath stroke
grestore
% val5
gsave
1 setlinewidth
0 0 0 nodecolor
27 18 27 18 ellipse_path stroke
0 0 0 nodecolor
14 /Times-Roman set_font
23 14.3 moveto 8 (5) alignedtext
grestore
% node1->val5
gsave
1 setlinewidth
0 0 0 edgecolor
newpath 84.08 74.5 moveto
74.04 64.73 60.62 51.69 49.32 40.7 curveto
stroke
0 0 0 edgecolor
newpath 51.51 37.95 moveto
41.9 33.49 lineto
46.63 42.97 lineto
closepath fill
1 setlinewidth
solid
0 0 0 edgecolor
newpath 51.51 37.95 moveto
41.9 33.49 lineto
46.63 42.97 lineto
closepath stroke
grestore
% val7
gsave
1 setlinewidth
0 0 0 nodecolor
99 18 27 18 ellipse_path stroke
0 0 0 nodecolor
14 /Times-Roman set_font
95 14.3 moveto 8 (7) alignedtext
grestore
% node1->val7
gsave
1 setlinewidth
0 0 0 edgecolor
newpath 99 71.7 moveto
99 63.98 99 54.71 99 46.11 curveto
stroke
0 0 0 edgecolor
newpath 102.5 46.1 moveto
99 36.1 lineto
95.5 46.1 lineto
closepath fill
1 setlinewidth
solid
0 0 0 edgecolor
newpath 102.5 46.1 moveto
99 36.1 lineto
95.5 46.1 lineto
closepath stroke
grestore
% val8
gsave
1 setlinewidth
0 0 0 nodecolor
171 18 27 18 ellipse_path stroke
0 0 0 nodecolor
14 /Times-Roman set_font
167 14.3 moveto 8 (8) alignedtext
grestore
% node2->val8
gsave
1 setlinewidth
0 0 0 edgecolor
newpath 197.88 72.76 moveto
193.7 64.4 188.51 54.02 183.8 44.61 curveto
stroke
0 0 0 edgecolor
newpath 186.92 43.01 moveto
179.32 35.63 lineto
180.66 46.14 lineto
closepath fill
1 setlinewidth
solid
0 0 0 edgecolor
newpath 186.92 43.01 moveto
179.32 35.63 lineto
180.66 46.14 lineto
closepath stroke
grestore
% val9
gsave
1 setlinewidth
0 0 0 nodecolor
243 18 27 18 ellipse_path stroke
0 0 0 nodecolor
14 /Times-Roman set_font
239 14.3 moveto 8 (9) alignedtext
grestore
% node2->val9
gsave
1 setlinewidth
0 0 0 edgecolor
newpath 214.58 72.76 moveto
219.06 64.28 224.65 53.71 229.68 44.2 curveto
stroke
0 0 0 edgecolor
newpath 232.89 45.62 moveto
234.46 35.15 lineto
226.7 42.35 lineto
closepath fill
1 setlinewidth
solid
0 0 0 edgecolor
newpath 232.89 45.62 moveto
234.46 35.15 lineto
226.7 42.35 lineto
closepath stroke
grestore
% val11
gsave
1 setlinewidth
0 0 0 nodecolor
315 18 27 18 ellipse_path stroke
0 0 0 nodecolor
14 /Times-Roman set_font
307.5 14.3 moveto 15 (11) alignedtext
grestore
% node3->val11
gsave
1 setlinewidth
0 0 0 edgecolor
newpath 315 71.7 moveto
315 63.98 315 54.71 315 46.11 curveto
stroke
0 0 0 edgecolor
newpath 318.5 46.1 moveto
315 36.1 lineto
311.5 46.1 lineto
closepath fill
1 setlinewidth
solid
0 0 0 edgecolor
newpath 318.5 46.1 moveto
315 36.1 lineto
311.5 46.1 lineto
closepath stroke
grestore
% val12
gsave
1 setlinewidth
0 0 0 nodecolor
387 18 27 18 ellipse_path stroke
0 0 0 nodecolor
14 /Times-Roman set_font
379.5 14.3 moveto 15 (12) alignedtext
grestore
% node3->val12
gsave
1 setlinewidth
0 0 0 edgecolor
newpath 330.27 74.15 moveto
340.33 64.37 353.67 51.4 364.89 40.5 curveto
stroke
0 0 0 edgecolor
newpath 367.51 42.83 moveto
372.25 33.35 lineto
362.64 37.81 lineto
closepath fill
1 setlinewidth
solid
0 0 0 edgecolor
newpath 367.51 42.83 moveto
372.25 33.35 lineto
362.64 37.81 lineto
closepath stroke
grestore
endpage
showpage
grestore
%%PageTrailer
%%EndPage: 1
%%Trailer
end
restore
%%EOF
