digraph 
{ 
	node0[label="(8, 11)";];
	node1[label="(7, -)";];
	node2[label="(9,-)";];
	node3[label="(12,-)";];
	val5 [label="5"];
	val7 [label="7"];
	val8 [label="8"];
	val9 [label="9"];
	val11 [label="11"];
	val12 [label="12"];

	node0->node1;
	node0->node2;
	node0->node3;
	node1->val5;
	node1->val7;
	node2->val8;
	node2->val9;
	node3->val11;
	node3->val12;
} 
