%!PS-Adobe-3.0 EPSF-3.0
%%Creator: graphviz version 2.32.0 (20130801.1934)
%%Title: %3
%%Pages: 1
%%BoundingBox: 36 36 602 224
%%EndComments
save
%%BeginProlog
/DotDict 200 dict def
DotDict begin

/setupLatin1 {
mark
/EncodingVector 256 array def
 EncodingVector 0

ISOLatin1Encoding 0 255 getinterval putinterval
EncodingVector 45 /hyphen put

% Set up ISO Latin 1 character encoding
/starnetISO {
        dup dup findfont dup length dict begin
        { 1 index /FID ne { def }{ pop pop } ifelse
        } forall
        /Encoding EncodingVector def
        currentdict end definefont
} def
/Times-Roman starnetISO def
/Times-Italic starnetISO def
/Times-Bold starnetISO def
/Times-BoldItalic starnetISO def
/Helvetica starnetISO def
/Helvetica-Oblique starnetISO def
/Helvetica-Bold starnetISO def
/Helvetica-BoldOblique starnetISO def
/Courier starnetISO def
/Courier-Oblique starnetISO def
/Courier-Bold starnetISO def
/Courier-BoldOblique starnetISO def
cleartomark
} bind def

%%BeginResource: procset graphviz 0 0
/coord-font-family /Times-Roman def
/default-font-family /Times-Roman def
/coordfont coord-font-family findfont 8 scalefont def

/InvScaleFactor 1.0 def
/set_scale {
       dup 1 exch div /InvScaleFactor exch def
       scale
} bind def

% styles
/solid { [] 0 setdash } bind def
/dashed { [9 InvScaleFactor mul dup ] 0 setdash } bind def
/dotted { [1 InvScaleFactor mul 6 InvScaleFactor mul] 0 setdash } bind def
/invis {/fill {newpath} def /stroke {newpath} def /show {pop newpath} def} bind def
/bold { 2 setlinewidth } bind def
/filled { } bind def
/unfilled { } bind def
/rounded { } bind def
/diagonals { } bind def
/tapered { } bind def

% hooks for setting color 
/nodecolor { sethsbcolor } bind def
/edgecolor { sethsbcolor } bind def
/graphcolor { sethsbcolor } bind def
/nopcolor {pop pop pop} bind def

/beginpage {	% i j npages
	/npages exch def
	/j exch def
	/i exch def
	/str 10 string def
	npages 1 gt {
		gsave
			coordfont setfont
			0 0 moveto
			(\() show i str cvs show (,) show j str cvs show (\)) show
		grestore
	} if
} bind def

/set_font {
	findfont exch
	scalefont setfont
} def

% draw text fitted to its expected width
/alignedtext {			% width text
	/text exch def
	/width exch def
	gsave
		width 0 gt {
			[] 0 setdash
			text stringwidth pop width exch sub text length div 0 text ashow
		} if
	grestore
} def

/boxprim {				% xcorner ycorner xsize ysize
		4 2 roll
		moveto
		2 copy
		exch 0 rlineto
		0 exch rlineto
		pop neg 0 rlineto
		closepath
} bind def

/ellipse_path {
	/ry exch def
	/rx exch def
	/y exch def
	/x exch def
	matrix currentmatrix
	newpath
	x y translate
	rx ry scale
	0 0 1 0 360 arc
	setmatrix
} bind def

/endpage { showpage } bind def
/showpage { } def

/layercolorseq
	[	% layer color sequence - darkest to lightest
		[0 0 0]
		[.2 .8 .8]
		[.4 .8 .8]
		[.6 .8 .8]
		[.8 .8 .8]
	]
def

/layerlen layercolorseq length def

/setlayer {/maxlayer exch def /curlayer exch def
	layercolorseq curlayer 1 sub layerlen mod get
	aload pop sethsbcolor
	/nodecolor {nopcolor} def
	/edgecolor {nopcolor} def
	/graphcolor {nopcolor} def
} bind def

/onlayer { curlayer ne {invis} if } def

/onlayers {
	/myupper exch def
	/mylower exch def
	curlayer mylower lt
	curlayer myupper gt
	or
	{invis} if
} def

/curlayer 0 def

%%EndResource
%%EndProlog
%%BeginSetup
14 default-font-family set_font
1 setmiterlimit
% /arrowlength 10 def
% /arrowwidth 5 def

% make sure pdfmark is harmless for PS-interpreters other than Distiller
/pdfmark where {pop} {userdict /pdfmark /cleartomark load put} ifelse
% make '<<' and '>>' safe on PS Level 1 devices
/languagelevel where {pop languagelevel}{1} ifelse
2 lt {
    userdict (<<) cvn ([) cvn load put
    userdict (>>) cvn ([) cvn load put
} if

%%EndSetup
setupLatin1
%%Page: 1 1
%%PageBoundingBox: 36 36 602 224
%%PageOrientation: Portrait
0 0 1 beginpage
gsave
36 36 566 188 boxprim clip newpath
1 1 set_scale 0 rotate 40 41 translate
% node0
gsave
1 setlinewidth
0 0 0 nodecolor
315 162 35.15 18 ellipse_path stroke
0 0 0 nodecolor
14 /Times-Roman set_font
296 158.3 moveto 38 (\(8, 11\)) alignedtext
grestore
% node1
gsave
1 setlinewidth
0 0 0 nodecolor
135 90 30.32 18 ellipse_path stroke
0 0 0 nodecolor
14 /Times-Roman set_font
119.5 86.3 moveto 31 (\(5, 7\)) alignedtext
grestore
% node0->node1
gsave
1 setlinewidth
0 0 0 edgecolor
newpath 287.66 150.37 moveto
255.97 138.05 203.71 117.72 169.32 104.35 curveto
stroke
0 0 0 edgecolor
newpath 170.28 100.97 moveto
159.69 100.6 lineto
167.75 107.49 lineto
closepath fill
1 setlinewidth
solid
0 0 0 edgecolor
newpath 170.28 100.97 moveto
159.69 100.6 lineto
167.75 107.49 lineto
closepath stroke
grestore
% node2
gsave
1 setlinewidth
0 0 0 nodecolor
315 90 32.25 18 ellipse_path stroke
0 0 0 nodecolor
14 /Times-Roman set_font
298 86.3 moveto 34 (\(9,10\)) alignedtext
grestore
% node0->node2
gsave
1 setlinewidth
0 0 0 edgecolor
newpath 315 143.7 moveto
315 135.98 315 126.71 315 118.11 curveto
stroke
0 0 0 edgecolor
newpath 318.5 118.1 moveto
315 108.1 lineto
311.5 118.1 lineto
closepath fill
1 setlinewidth
solid
0 0 0 edgecolor
newpath 318.5 118.1 moveto
315 108.1 lineto
311.5 118.1 lineto
closepath stroke
grestore
% node3
gsave
1 setlinewidth
0 0 0 nodecolor
459 90 31.3 18 ellipse_path stroke
0 0 0 nodecolor
14 /Times-Roman set_font
443 86.3 moveto 32 (\(12,-\)) alignedtext
grestore
% node0->node3
gsave
1 setlinewidth
0 0 0 edgecolor
newpath 339.75 148.97 moveto
363.82 137.27 400.49 119.44 426.81 106.65 curveto
stroke
0 0 0 edgecolor
newpath 428.53 109.7 moveto
435.99 102.18 lineto
425.47 103.41 lineto
closepath fill
1 setlinewidth
solid
0 0 0 edgecolor
newpath 428.53 109.7 moveto
435.99 102.18 lineto
425.47 103.41 lineto
closepath stroke
grestore
% val1
gsave
1 setlinewidth
0 0 0 nodecolor
27 18 27 18 ellipse_path stroke
0 0 0 nodecolor
14 /Times-Roman set_font
23 14.3 moveto 8 (1) alignedtext
grestore
% node1->val1
gsave
1 setlinewidth
0 0 0 edgecolor
newpath 115.19 76.16 moveto
98.05 65.05 73.11 48.89 54.12 36.58 curveto
stroke
0 0 0 edgecolor
newpath 55.9 33.56 moveto
45.6 31.06 lineto
52.09 39.43 lineto
closepath fill
1 setlinewidth
solid
0 0 0 edgecolor
newpath 55.9 33.56 moveto
45.6 31.06 lineto
52.09 39.43 lineto
closepath stroke
grestore
% val5
gsave
1 setlinewidth
0 0 0 nodecolor
99 18 27 18 ellipse_path stroke
0 0 0 nodecolor
14 /Times-Roman set_font
95 14.3 moveto 8 (5) alignedtext
grestore
% node1->val5
gsave
1 setlinewidth
0 0 0 edgecolor
newpath 126.47 72.41 moveto
122.16 64.04 116.85 53.71 112.05 44.37 curveto
stroke
0 0 0 edgecolor
newpath 115.16 42.76 moveto
107.47 35.47 lineto
108.93 45.96 lineto
closepath fill
1 setlinewidth
solid
0 0 0 edgecolor
newpath 115.16 42.76 moveto
107.47 35.47 lineto
108.93 45.96 lineto
closepath stroke
grestore
% val7
gsave
1 setlinewidth
0 0 0 nodecolor
171 18 27 18 ellipse_path stroke
0 0 0 nodecolor
14 /Times-Roman set_font
167 14.3 moveto 8 (7) alignedtext
grestore
% node1->val7
gsave
1 setlinewidth
0 0 0 edgecolor
newpath 143.53 72.41 moveto
147.84 64.04 153.15 53.71 157.95 44.37 curveto
stroke
0 0 0 edgecolor
newpath 161.07 45.96 moveto
162.53 35.47 lineto
154.84 42.76 lineto
closepath fill
1 setlinewidth
solid
0 0 0 edgecolor
newpath 161.07 45.96 moveto
162.53 35.47 lineto
154.84 42.76 lineto
closepath stroke
grestore
% val8
gsave
1 setlinewidth
0 0 0 nodecolor
243 18 27 18 ellipse_path stroke
0 0 0 nodecolor
14 /Times-Roman set_font
239 14.3 moveto 8 (8) alignedtext
grestore
% node2->val8
gsave
1 setlinewidth
0 0 0 edgecolor
newpath 299.38 73.81 moveto
289.3 64.01 276.04 51.12 264.91 40.3 curveto
stroke
0 0 0 edgecolor
newpath 267.22 37.67 moveto
257.61 33.21 lineto
262.34 42.69 lineto
closepath fill
1 setlinewidth
solid
0 0 0 edgecolor
newpath 267.22 37.67 moveto
257.61 33.21 lineto
262.34 42.69 lineto
closepath stroke
grestore
% val9
gsave
1 setlinewidth
0 0 0 nodecolor
315 18 27 18 ellipse_path stroke
0 0 0 nodecolor
14 /Times-Roman set_font
311 14.3 moveto 8 (9) alignedtext
grestore
% node2->val9
gsave
1 setlinewidth
0 0 0 edgecolor
newpath 315 71.7 moveto
315 63.98 315 54.71 315 46.11 curveto
stroke
0 0 0 edgecolor
newpath 318.5 46.1 moveto
315 36.1 lineto
311.5 46.1 lineto
closepath fill
1 setlinewidth
solid
0 0 0 edgecolor
newpath 318.5 46.1 moveto
315 36.1 lineto
311.5 46.1 lineto
closepath stroke
grestore
% val10
gsave
1 setlinewidth
0 0 0 nodecolor
387 18 27 18 ellipse_path stroke
0 0 0 nodecolor
14 /Times-Roman set_font
379.5 14.3 moveto 15 (10) alignedtext
grestore
% node2->val10
gsave
1 setlinewidth
0 0 0 edgecolor
newpath 330.62 73.81 moveto
340.7 64.01 353.96 51.12 365.09 40.3 curveto
stroke
0 0 0 edgecolor
newpath 367.66 42.69 moveto
372.39 33.21 lineto
362.78 37.67 lineto
closepath fill
1 setlinewidth
solid
0 0 0 edgecolor
newpath 367.66 42.69 moveto
372.39 33.21 lineto
362.78 37.67 lineto
closepath stroke
grestore
% val11
gsave
1 setlinewidth
0 0 0 nodecolor
459 18 27 18 ellipse_path stroke
0 0 0 nodecolor
14 /Times-Roman set_font
451.5 14.3 moveto 15 (11) alignedtext
grestore
% node3->val11
gsave
1 setlinewidth
0 0 0 edgecolor
newpath 459 71.7 moveto
459 63.98 459 54.71 459 46.11 curveto
stroke
0 0 0 edgecolor
newpath 462.5 46.1 moveto
459 36.1 lineto
455.5 46.1 lineto
closepath fill
1 setlinewidth
solid
0 0 0 edgecolor
newpath 462.5 46.1 moveto
459 36.1 lineto
455.5 46.1 lineto
closepath stroke
grestore
% val12
gsave
1 setlinewidth
0 0 0 nodecolor
531 18 27 18 ellipse_path stroke
0 0 0 nodecolor
14 /Times-Roman set_font
523.5 14.3 moveto 15 (12) alignedtext
grestore
% node3->val12
gsave
1 setlinewidth
0 0 0 edgecolor
newpath 474.27 74.15 moveto
484.33 64.37 497.67 51.4 508.89 40.5 curveto
stroke
0 0 0 edgecolor
newpath 511.51 42.83 moveto
516.25 33.35 lineto
506.64 37.81 lineto
closepath fill
1 setlinewidth
solid
0 0 0 edgecolor
newpath 511.51 42.83 moveto
516.25 33.35 lineto
506.64 37.81 lineto
closepath stroke
grestore
endpage
showpage
grestore
%%PageTrailer
%%EndPage: 1
%%Trailer
end
restore
%%EOF
