%!PS-Adobe-3.0 EPSF-3.0
%%Creator: graphviz version 2.32.0 (20130801.1934)
%%Title: %3
%%Pages: 1
%%BoundingBox: 36 36 674 296
%%EndComments
save
%%BeginProlog
/DotDict 200 dict def
DotDict begin

/setupLatin1 {
mark
/EncodingVector 256 array def
 EncodingVector 0

ISOLatin1Encoding 0 255 getinterval putinterval
EncodingVector 45 /hyphen put

% Set up ISO Latin 1 character encoding
/starnetISO {
        dup dup findfont dup length dict begin
        { 1 index /FID ne { def }{ pop pop } ifelse
        } forall
        /Encoding EncodingVector def
        currentdict end definefont
} def
/Times-Roman starnetISO def
/Times-Italic starnetISO def
/Times-Bold starnetISO def
/Times-BoldItalic starnetISO def
/Helvetica starnetISO def
/Helvetica-Oblique starnetISO def
/Helvetica-Bold starnetISO def
/Helvetica-BoldOblique starnetISO def
/Courier starnetISO def
/Courier-Oblique starnetISO def
/Courier-Bold starnetISO def
/Courier-BoldOblique starnetISO def
cleartomark
} bind def

%%BeginResource: procset graphviz 0 0
/coord-font-family /Times-Roman def
/default-font-family /Times-Roman def
/coordfont coord-font-family findfont 8 scalefont def

/InvScaleFactor 1.0 def
/set_scale {
       dup 1 exch div /InvScaleFactor exch def
       scale
} bind def

% styles
/solid { [] 0 setdash } bind def
/dashed { [9 InvScaleFactor mul dup ] 0 setdash } bind def
/dotted { [1 InvScaleFactor mul 6 InvScaleFactor mul] 0 setdash } bind def
/invis {/fill {newpath} def /stroke {newpath} def /show {pop newpath} def} bind def
/bold { 2 setlinewidth } bind def
/filled { } bind def
/unfilled { } bind def
/rounded { } bind def
/diagonals { } bind def
/tapered { } bind def

% hooks for setting color 
/nodecolor { sethsbcolor } bind def
/edgecolor { sethsbcolor } bind def
/graphcolor { sethsbcolor } bind def
/nopcolor {pop pop pop} bind def

/beginpage {	% i j npages
	/npages exch def
	/j exch def
	/i exch def
	/str 10 string def
	npages 1 gt {
		gsave
			coordfont setfont
			0 0 moveto
			(\() show i str cvs show (,) show j str cvs show (\)) show
		grestore
	} if
} bind def

/set_font {
	findfont exch
	scalefont setfont
} def

% draw text fitted to its expected width
/alignedtext {			% width text
	/text exch def
	/width exch def
	gsave
		width 0 gt {
			[] 0 setdash
			text stringwidth pop width exch sub text length div 0 text ashow
		} if
	grestore
} def

/boxprim {				% xcorner ycorner xsize ysize
		4 2 roll
		moveto
		2 copy
		exch 0 rlineto
		0 exch rlineto
		pop neg 0 rlineto
		closepath
} bind def

/ellipse_path {
	/ry exch def
	/rx exch def
	/y exch def
	/x exch def
	matrix currentmatrix
	newpath
	x y translate
	rx ry scale
	0 0 1 0 360 arc
	setmatrix
} bind def

/endpage { showpage } bind def
/showpage { } def

/layercolorseq
	[	% layer color sequence - darkest to lightest
		[0 0 0]
		[.2 .8 .8]
		[.4 .8 .8]
		[.6 .8 .8]
		[.8 .8 .8]
	]
def

/layerlen layercolorseq length def

/setlayer {/maxlayer exch def /curlayer exch def
	layercolorseq curlayer 1 sub layerlen mod get
	aload pop sethsbcolor
	/nodecolor {nopcolor} def
	/edgecolor {nopcolor} def
	/graphcolor {nopcolor} def
} bind def

/onlayer { curlayer ne {invis} if } def

/onlayers {
	/myupper exch def
	/mylower exch def
	curlayer mylower lt
	curlayer myupper gt
	or
	{invis} if
} def

/curlayer 0 def

%%EndResource
%%EndProlog
%%BeginSetup
14 default-font-family set_font
1 setmiterlimit
% /arrowlength 10 def
% /arrowwidth 5 def

% make sure pdfmark is harmless for PS-interpreters other than Distiller
/pdfmark where {pop} {userdict /pdfmark /cleartomark load put} ifelse
% make '<<' and '>>' safe on PS Level 1 devices
/languagelevel where {pop languagelevel}{1} ifelse
2 lt {
    userdict (<<) cvn ([) cvn load put
    userdict (>>) cvn ([) cvn load put
} if

%%EndSetup
setupLatin1
%%Page: 1 1
%%PageBoundingBox: 36 36 674 296
%%PageOrientation: Portrait
0 0 1 beginpage
gsave
36 36 638 260 boxprim clip newpath
1 1 set_scale 0 rotate 40 41 translate
% node0
gsave
1 setlinewidth
0 0 0 nodecolor
315 234 28.4 18 ellipse_path stroke
0 0 0 nodecolor
14 /Times-Roman set_font
301 230.3 moveto 28 (\(8, -\)) alignedtext
grestore
% node1
gsave
1 setlinewidth
0 0 0 nodecolor
207 162 27 18 ellipse_path stroke
0 0 0 nodecolor
14 /Times-Roman set_font
194.5 158.3 moveto 25 (\(6,-\)) alignedtext
grestore
% node0->node1
gsave
1 setlinewidth
0 0 0 edgecolor
newpath 295.94 220.65 moveto
278.9 209.6 253.72 193.28 234.5 180.82 curveto
stroke
0 0 0 edgecolor
newpath 236.16 177.73 moveto
225.87 175.23 lineto
232.36 183.61 lineto
closepath fill
1 setlinewidth
solid
0 0 0 edgecolor
newpath 236.16 177.73 moveto
225.87 175.23 lineto
232.36 183.61 lineto
closepath stroke
grestore
% node2
gsave
1 setlinewidth
0 0 0 nodecolor
387 162 31.3 18 ellipse_path stroke
0 0 0 nodecolor
14 /Times-Roman set_font
371 158.3 moveto 32 (\(11,-\)) alignedtext
grestore
% node0->node2
gsave
1 setlinewidth
0 0 0 edgecolor
newpath 329.92 218.5 moveto
339.82 208.86 353.02 196.04 364.23 185.14 curveto
stroke
0 0 0 edgecolor
newpath 366.87 187.45 moveto
371.6 177.97 lineto
361.99 182.43 lineto
closepath fill
1 setlinewidth
solid
0 0 0 edgecolor
newpath 366.87 187.45 moveto
371.6 177.97 lineto
361.99 182.43 lineto
closepath stroke
grestore
% node3
gsave
1 setlinewidth
0 0 0 nodecolor
99 90 27 18 ellipse_path stroke
0 0 0 nodecolor
14 /Times-Roman set_font
86.5 86.3 moveto 25 (\(5,-\)) alignedtext
grestore
% node1->node3
gsave
1 setlinewidth
0 0 0 edgecolor
newpath 188.19 148.81 moveto
171 137.67 145.38 121.06 126.01 108.5 curveto
stroke
0 0 0 edgecolor
newpath 127.89 105.56 moveto
117.6 103.05 lineto
124.08 111.43 lineto
closepath fill
1 setlinewidth
solid
0 0 0 edgecolor
newpath 127.89 105.56 moveto
117.6 103.05 lineto
124.08 111.43 lineto
closepath stroke
grestore
% node4
gsave
1 setlinewidth
0 0 0 nodecolor
207 90 27 18 ellipse_path stroke
0 0 0 nodecolor
14 /Times-Roman set_font
194.5 86.3 moveto 25 (\(7,-\)) alignedtext
grestore
% node1->node4
gsave
1 setlinewidth
0 0 0 edgecolor
newpath 207 143.7 moveto
207 135.98 207 126.71 207 118.11 curveto
stroke
0 0 0 edgecolor
newpath 210.5 118.1 moveto
207 108.1 lineto
203.5 118.1 lineto
closepath fill
1 setlinewidth
solid
0 0 0 edgecolor
newpath 210.5 118.1 moveto
207 108.1 lineto
203.5 118.1 lineto
closepath stroke
grestore
% node5
gsave
1 setlinewidth
0 0 0 nodecolor
387 90 32.25 18 ellipse_path stroke
0 0 0 nodecolor
14 /Times-Roman set_font
370 86.3 moveto 34 (\(9,10\)) alignedtext
grestore
% node2->node5
gsave
1 setlinewidth
0 0 0 edgecolor
newpath 387 143.7 moveto
387 135.98 387 126.71 387 118.11 curveto
stroke
0 0 0 edgecolor
newpath 390.5 118.1 moveto
387 108.1 lineto
383.5 118.1 lineto
closepath fill
1 setlinewidth
solid
0 0 0 edgecolor
newpath 390.5 118.1 moveto
387 108.1 lineto
383.5 118.1 lineto
closepath stroke
grestore
% node6
gsave
1 setlinewidth
0 0 0 nodecolor
531 90 31.3 18 ellipse_path stroke
0 0 0 nodecolor
14 /Times-Roman set_font
515 86.3 moveto 32 (\(12,-\)) alignedtext
grestore
% node2->node6
gsave
1 setlinewidth
0 0 0 edgecolor
newpath 410.14 149.75 moveto
434.17 138.07 471.97 119.7 498.89 106.61 curveto
stroke
0 0 0 edgecolor
newpath 500.46 109.74 moveto
507.92 102.22 lineto
497.4 103.44 lineto
closepath fill
1 setlinewidth
solid
0 0 0 edgecolor
newpath 500.46 109.74 moveto
507.92 102.22 lineto
497.4 103.44 lineto
closepath stroke
grestore
% val1
gsave
1 setlinewidth
0 0 0 nodecolor
27 18 27 18 ellipse_path stroke
0 0 0 nodecolor
14 /Times-Roman set_font
23 14.3 moveto 8 (1) alignedtext
grestore
% node3->val1
gsave
1 setlinewidth
0 0 0 edgecolor
newpath 84.43 74.83 moveto
74.25 64.94 60.48 51.55 48.97 40.36 curveto
stroke
0 0 0 edgecolor
newpath 51.41 37.85 moveto
41.8 33.38 lineto
46.53 42.87 lineto
closepath fill
1 setlinewidth
solid
0 0 0 edgecolor
newpath 51.41 37.85 moveto
41.8 33.38 lineto
46.53 42.87 lineto
closepath stroke
grestore
% val5
gsave
1 setlinewidth
0 0 0 nodecolor
99 18 27 18 ellipse_path stroke
0 0 0 nodecolor
14 /Times-Roman set_font
95 14.3 moveto 8 (5) alignedtext
grestore
% node3->val5
gsave
1 setlinewidth
0 0 0 edgecolor
newpath 99 71.7 moveto
99 63.98 99 54.71 99 46.11 curveto
stroke
0 0 0 edgecolor
newpath 102.5 46.1 moveto
99 36.1 lineto
95.5 46.1 lineto
closepath fill
1 setlinewidth
solid
0 0 0 edgecolor
newpath 102.5 46.1 moveto
99 36.1 lineto
95.5 46.1 lineto
closepath stroke
grestore
% val6
gsave
1 setlinewidth
0 0 0 nodecolor
171 18 27 18 ellipse_path stroke
0 0 0 nodecolor
14 /Times-Roman set_font
167 14.3 moveto 8 (6) alignedtext
grestore
% node4->val6
gsave
1 setlinewidth
0 0 0 edgecolor
newpath 198.65 72.76 moveto
194.29 64.28 188.85 53.71 183.96 44.2 curveto
stroke
0 0 0 edgecolor
newpath 186.99 42.44 moveto
179.3 35.15 lineto
180.77 45.64 lineto
closepath fill
1 setlinewidth
solid
0 0 0 edgecolor
newpath 186.99 42.44 moveto
179.3 35.15 lineto
180.77 45.64 lineto
closepath stroke
grestore
% val7
gsave
1 setlinewidth
0 0 0 nodecolor
243 18 27 18 ellipse_path stroke
0 0 0 nodecolor
14 /Times-Roman set_font
239 14.3 moveto 8 (7) alignedtext
grestore
% node4->val7
gsave
1 setlinewidth
0 0 0 edgecolor
newpath 215.35 72.76 moveto
219.71 64.28 225.15 53.71 230.04 44.2 curveto
stroke
0 0 0 edgecolor
newpath 233.23 45.64 moveto
234.7 35.15 lineto
227.01 42.44 lineto
closepath fill
1 setlinewidth
solid
0 0 0 edgecolor
newpath 233.23 45.64 moveto
234.7 35.15 lineto
227.01 42.44 lineto
closepath stroke
grestore
% val8
gsave
1 setlinewidth
0 0 0 nodecolor
315 18 27 18 ellipse_path stroke
0 0 0 nodecolor
14 /Times-Roman set_font
311 14.3 moveto 8 (8) alignedtext
grestore
% node5->val8
gsave
1 setlinewidth
0 0 0 edgecolor
newpath 371.38 73.81 moveto
361.3 64.01 348.04 51.12 336.91 40.3 curveto
stroke
0 0 0 edgecolor
newpath 339.22 37.67 moveto
329.61 33.21 lineto
334.34 42.69 lineto
closepath fill
1 setlinewidth
solid
0 0 0 edgecolor
newpath 339.22 37.67 moveto
329.61 33.21 lineto
334.34 42.69 lineto
closepath stroke
grestore
% val9
gsave
1 setlinewidth
0 0 0 nodecolor
387 18 27 18 ellipse_path stroke
0 0 0 nodecolor
14 /Times-Roman set_font
383 14.3 moveto 8 (9) alignedtext
grestore
% node5->val9
gsave
1 setlinewidth
0 0 0 edgecolor
newpath 387 71.7 moveto
387 63.98 387 54.71 387 46.11 curveto
stroke
0 0 0 edgecolor
newpath 390.5 46.1 moveto
387 36.1 lineto
383.5 46.1 lineto
closepath fill
1 setlinewidth
solid
0 0 0 edgecolor
newpath 390.5 46.1 moveto
387 36.1 lineto
383.5 46.1 lineto
closepath stroke
grestore
% val10
gsave
1 setlinewidth
0 0 0 nodecolor
459 18 27 18 ellipse_path stroke
0 0 0 nodecolor
14 /Times-Roman set_font
451.5 14.3 moveto 15 (10) alignedtext
grestore
% node5->val10
gsave
1 setlinewidth
0 0 0 edgecolor
newpath 402.62 73.81 moveto
412.7 64.01 425.96 51.12 437.09 40.3 curveto
stroke
0 0 0 edgecolor
newpath 439.66 42.69 moveto
444.39 33.21 lineto
434.78 37.67 lineto
closepath fill
1 setlinewidth
solid
0 0 0 edgecolor
newpath 439.66 42.69 moveto
444.39 33.21 lineto
434.78 37.67 lineto
closepath stroke
grestore
% val11
gsave
1 setlinewidth
0 0 0 nodecolor
531 18 27 18 ellipse_path stroke
0 0 0 nodecolor
14 /Times-Roman set_font
523.5 14.3 moveto 15 (11) alignedtext
grestore
% node6->val11
gsave
1 setlinewidth
0 0 0 edgecolor
newpath 531 71.7 moveto
531 63.98 531 54.71 531 46.11 curveto
stroke
0 0 0 edgecolor
newpath 534.5 46.1 moveto
531 36.1 lineto
527.5 46.1 lineto
closepath fill
1 setlinewidth
solid
0 0 0 edgecolor
newpath 534.5 46.1 moveto
531 36.1 lineto
527.5 46.1 lineto
closepath stroke
grestore
% val12
gsave
1 setlinewidth
0 0 0 nodecolor
603 18 27 18 ellipse_path stroke
0 0 0 nodecolor
14 /Times-Roman set_font
595.5 14.3 moveto 15 (12) alignedtext
grestore
% node6->val12
gsave
1 setlinewidth
0 0 0 edgecolor
newpath 546.27 74.15 moveto
556.33 64.37 569.67 51.4 580.89 40.5 curveto
stroke
0 0 0 edgecolor
newpath 583.51 42.83 moveto
588.25 33.35 lineto
578.64 37.81 lineto
closepath fill
1 setlinewidth
solid
0 0 0 edgecolor
newpath 583.51 42.83 moveto
588.25 33.35 lineto
578.64 37.81 lineto
closepath stroke
grestore
endpage
showpage
grestore
%%PageTrailer
%%EndPage: 1
%%Trailer
end
restore
%%EOF
