%!PS-Adobe-3.0 EPSF-3.0
%%Creator: graphviz version 2.32.0 (20130801.1934)
%%Title: %3
%%Pages: 1
%%BoundingBox: 36 36 350 296
%%EndComments
save
%%BeginProlog
/DotDict 200 dict def
DotDict begin

/setupLatin1 {
mark
/EncodingVector 256 array def
 EncodingVector 0

ISOLatin1Encoding 0 255 getinterval putinterval
EncodingVector 45 /hyphen put

% Set up ISO Latin 1 character encoding
/starnetISO {
        dup dup findfont dup length dict begin
        { 1 index /FID ne { def }{ pop pop } ifelse
        } forall
        /Encoding EncodingVector def
        currentdict end definefont
} def
/Times-Roman starnetISO def
/Times-Italic starnetISO def
/Times-Bold starnetISO def
/Times-BoldItalic starnetISO def
/Helvetica starnetISO def
/Helvetica-Oblique starnetISO def
/Helvetica-Bold starnetISO def
/Helvetica-BoldOblique starnetISO def
/Courier starnetISO def
/Courier-Oblique starnetISO def
/Courier-Bold starnetISO def
/Courier-BoldOblique starnetISO def
cleartomark
} bind def

%%BeginResource: procset graphviz 0 0
/coord-font-family /Times-Roman def
/default-font-family /Times-Roman def
/coordfont coord-font-family findfont 8 scalefont def

/InvScaleFactor 1.0 def
/set_scale {
       dup 1 exch div /InvScaleFactor exch def
       scale
} bind def

% styles
/solid { [] 0 setdash } bind def
/dashed { [9 InvScaleFactor mul dup ] 0 setdash } bind def
/dotted { [1 InvScaleFactor mul 6 InvScaleFactor mul] 0 setdash } bind def
/invis {/fill {newpath} def /stroke {newpath} def /show {pop newpath} def} bind def
/bold { 2 setlinewidth } bind def
/filled { } bind def
/unfilled { } bind def
/rounded { } bind def
/diagonals { } bind def
/tapered { } bind def

% hooks for setting color 
/nodecolor { sethsbcolor } bind def
/edgecolor { sethsbcolor } bind def
/graphcolor { sethsbcolor } bind def
/nopcolor {pop pop pop} bind def

/beginpage {	% i j npages
	/npages exch def
	/j exch def
	/i exch def
	/str 10 string def
	npages 1 gt {
		gsave
			coordfont setfont
			0 0 moveto
			(\() show i str cvs show (,) show j str cvs show (\)) show
		grestore
	} if
} bind def

/set_font {
	findfont exch
	scalefont setfont
} def

% draw text fitted to its expected width
/alignedtext {			% width text
	/text exch def
	/width exch def
	gsave
		width 0 gt {
			[] 0 setdash
			text stringwidth pop width exch sub text length div 0 text ashow
		} if
	grestore
} def

/boxprim {				% xcorner ycorner xsize ysize
		4 2 roll
		moveto
		2 copy
		exch 0 rlineto
		0 exch rlineto
		pop neg 0 rlineto
		closepath
} bind def

/ellipse_path {
	/ry exch def
	/rx exch def
	/y exch def
	/x exch def
	matrix currentmatrix
	newpath
	x y translate
	rx ry scale
	0 0 1 0 360 arc
	setmatrix
} bind def

/endpage { showpage } bind def
/showpage { } def

/layercolorseq
	[	% layer color sequence - darkest to lightest
		[0 0 0]
		[.2 .8 .8]
		[.4 .8 .8]
		[.6 .8 .8]
		[.8 .8 .8]
	]
def

/layerlen layercolorseq length def

/setlayer {/maxlayer exch def /curlayer exch def
	layercolorseq curlayer 1 sub layerlen mod get
	aload pop sethsbcolor
	/nodecolor {nopcolor} def
	/edgecolor {nopcolor} def
	/graphcolor {nopcolor} def
} bind def

/onlayer { curlayer ne {invis} if } def

/onlayers {
	/myupper exch def
	/mylower exch def
	curlayer mylower lt
	curlayer myupper gt
	or
	{invis} if
} def

/curlayer 0 def

%%EndResource
%%EndProlog
%%BeginSetup
14 default-font-family set_font
1 setmiterlimit
% /arrowlength 10 def
% /arrowwidth 5 def

% make sure pdfmark is harmless for PS-interpreters other than Distiller
/pdfmark where {pop} {userdict /pdfmark /cleartomark load put} ifelse
% make '<<' and '>>' safe on PS Level 1 devices
/languagelevel where {pop languagelevel}{1} ifelse
2 lt {
    userdict (<<) cvn ([) cvn load put
    userdict (>>) cvn ([) cvn load put
} if

%%EndSetup
setupLatin1
%%Page: 1 1
%%PageBoundingBox: 36 36 350 296
%%PageOrientation: Portrait
0 0 1 beginpage
gsave
36 36 314 260 boxprim clip newpath
1 1 set_scale 0 rotate 40 41 translate
% node0
gsave
1 setlinewidth
0 0 0 nodecolor
171 234 27 18 ellipse_path stroke
0 0 0 nodecolor
14 /Times-Roman set_font
167 230.3 moveto 8 (6) alignedtext
grestore
% node1
gsave
1 setlinewidth
0 0 0 nodecolor
135 162 27 18 ellipse_path stroke
0 0 0 nodecolor
14 /Times-Roman set_font
127.5 158.3 moveto 15 (28) alignedtext
grestore
% node0->node1
gsave
1 setlinewidth
0 0 0 edgecolor
newpath 162.65 216.76 moveto
158.29 208.28 152.85 197.71 147.96 188.2 curveto
stroke
0 0 0 edgecolor
newpath 150.99 186.44 moveto
143.3 179.15 lineto
144.77 189.64 lineto
closepath fill
1 setlinewidth
solid
0 0 0 edgecolor
newpath 150.99 186.44 moveto
143.3 179.15 lineto
144.77 189.64 lineto
closepath stroke
grestore
% node2
gsave
1 setlinewidth
0 0 0 nodecolor
207 162 27 18 ellipse_path stroke
0 0 0 nodecolor
14 /Times-Roman set_font
199.5 158.3 moveto 15 (17) alignedtext
grestore
% node0->node2
gsave
1 setlinewidth
0 0 0 edgecolor
newpath 179.35 216.76 moveto
183.71 208.28 189.15 197.71 194.04 188.2 curveto
stroke
0 0 0 edgecolor
newpath 197.23 189.64 moveto
198.7 179.15 lineto
191.01 186.44 lineto
closepath fill
1 setlinewidth
solid
0 0 0 edgecolor
newpath 197.23 189.64 moveto
198.7 179.15 lineto
191.01 186.44 lineto
closepath stroke
grestore
% node3
gsave
1 setlinewidth
0 0 0 nodecolor
63 90 27 18 ellipse_path stroke
0 0 0 nodecolor
14 /Times-Roman set_font
55.5 86.3 moveto 15 (58) alignedtext
grestore
% node1->node3
gsave
1 setlinewidth
0 0 0 edgecolor
newpath 120.43 146.83 moveto
110.25 136.94 96.48 123.55 84.97 112.36 curveto
stroke
0 0 0 edgecolor
newpath 87.41 109.85 moveto
77.8 105.38 lineto
82.53 114.87 lineto
closepath fill
1 setlinewidth
solid
0 0 0 edgecolor
newpath 87.41 109.85 moveto
77.8 105.38 lineto
82.53 114.87 lineto
closepath stroke
grestore
% node4
gsave
1 setlinewidth
0 0 0 nodecolor
135 90 27 18 ellipse_path stroke
0 0 0 nodecolor
14 /Times-Roman set_font
127.5 86.3 moveto 15 (46) alignedtext
grestore
% node1->node4
gsave
1 setlinewidth
0 0 0 edgecolor
newpath 135 143.7 moveto
135 135.98 135 126.71 135 118.11 curveto
stroke
0 0 0 edgecolor
newpath 138.5 118.1 moveto
135 108.1 lineto
131.5 118.1 lineto
closepath fill
1 setlinewidth
solid
0 0 0 edgecolor
newpath 138.5 118.1 moveto
135 108.1 lineto
131.5 118.1 lineto
closepath stroke
grestore
% node5
gsave
1 setlinewidth
0 0 0 nodecolor
207 90 27 18 ellipse_path stroke
0 0 0 nodecolor
14 /Times-Roman set_font
199.5 86.3 moveto 15 (79) alignedtext
grestore
% node2->node5
gsave
1 setlinewidth
0 0 0 edgecolor
newpath 207 143.7 moveto
207 135.98 207 126.71 207 118.11 curveto
stroke
0 0 0 edgecolor
newpath 210.5 118.1 moveto
207 108.1 lineto
203.5 118.1 lineto
closepath fill
1 setlinewidth
solid
0 0 0 edgecolor
newpath 210.5 118.1 moveto
207 108.1 lineto
203.5 118.1 lineto
closepath stroke
grestore
% node6
gsave
1 setlinewidth
0 0 0 nodecolor
279 90 27 18 ellipse_path stroke
0 0 0 nodecolor
14 /Times-Roman set_font
271.5 86.3 moveto 15 (66) alignedtext
grestore
% node2->node6
gsave
1 setlinewidth
0 0 0 edgecolor
newpath 221.57 146.83 moveto
231.75 136.94 245.52 123.55 257.03 112.36 curveto
stroke
0 0 0 edgecolor
newpath 259.47 114.87 moveto
264.2 105.38 lineto
254.59 109.85 lineto
closepath fill
1 setlinewidth
solid
0 0 0 edgecolor
newpath 259.47 114.87 moveto
264.2 105.38 lineto
254.59 109.85 lineto
closepath stroke
grestore
% node7
gsave
1 setlinewidth
0 0 0 nodecolor
27 18 27 18 ellipse_path stroke
0 0 0 nodecolor
14 /Times-Roman set_font
19.5 14.3 moveto 15 (87) alignedtext
grestore
% node3->node7
gsave
1 setlinewidth
0 0 0 edgecolor
newpath 54.65 72.76 moveto
50.29 64.28 44.85 53.71 39.96 44.2 curveto
stroke
0 0 0 edgecolor
newpath 42.99 42.44 moveto
35.3 35.15 lineto
36.77 45.64 lineto
closepath fill
1 setlinewidth
solid
0 0 0 edgecolor
newpath 42.99 42.44 moveto
35.3 35.15 lineto
36.77 45.64 lineto
closepath stroke
grestore
% node8
gsave
1 setlinewidth
0 0 0 nodecolor
99 18 27 18 ellipse_path stroke
0 0 0 nodecolor
14 /Times-Roman set_font
91.5 14.3 moveto 15 (94) alignedtext
grestore
% node3->node8
gsave
1 setlinewidth
0 0 0 edgecolor
newpath 71.35 72.76 moveto
75.71 64.28 81.15 53.71 86.04 44.2 curveto
stroke
0 0 0 edgecolor
newpath 89.23 45.64 moveto
90.7 35.15 lineto
83.01 42.44 lineto
closepath fill
1 setlinewidth
solid
0 0 0 edgecolor
newpath 89.23 45.64 moveto
90.7 35.15 lineto
83.01 42.44 lineto
closepath stroke
grestore
endpage
showpage
grestore
%%PageTrailer
%%EndPage: 1
%%Trailer
end
restore
%%EOF
