digraph 
{ 
	 node0[label="1";]
	 node1[label="6";]
	 node2[label="17";]
	 node3[label="28";]
	 node4[label="46";]
	 node5[label="79";]
	 node6[label="66";]
	 node7[label="87";]
	 node0 -> node1;
	 node0 -> node2;
	 node1 -> node3;
	 node1 -> node4;
	 node2 -> node5;
	 node2 -> node6;
	 node3 -> node7;
 null [label="Null"; shape=none;]
	 node3 -> null; 
 } 
