%!PS-Adobe-3.0 EPSF-3.0
%%Creator: graphviz version 2.32.0 (20130801.1934)
%%Title: %3
%%Pages: 1
%%BoundingBox: 36 36 314 224
%%EndComments
save
%%BeginProlog
/DotDict 200 dict def
DotDict begin

/setupLatin1 {
mark
/EncodingVector 256 array def
 EncodingVector 0

ISOLatin1Encoding 0 255 getinterval putinterval
EncodingVector 45 /hyphen put

% Set up ISO Latin 1 character encoding
/starnetISO {
        dup dup findfont dup length dict begin
        { 1 index /FID ne { def }{ pop pop } ifelse
        } forall
        /Encoding EncodingVector def
        currentdict end definefont
} def
/Times-Roman starnetISO def
/Times-Italic starnetISO def
/Times-Bold starnetISO def
/Times-BoldItalic starnetISO def
/Helvetica starnetISO def
/Helvetica-Oblique starnetISO def
/Helvetica-Bold starnetISO def
/Helvetica-BoldOblique starnetISO def
/Courier starnetISO def
/Courier-Oblique starnetISO def
/Courier-Bold starnetISO def
/Courier-BoldOblique starnetISO def
cleartomark
} bind def

%%BeginResource: procset graphviz 0 0
/coord-font-family /Times-Roman def
/default-font-family /Times-Roman def
/coordfont coord-font-family findfont 8 scalefont def

/InvScaleFactor 1.0 def
/set_scale {
       dup 1 exch div /InvScaleFactor exch def
       scale
} bind def

% styles
/solid { [] 0 setdash } bind def
/dashed { [9 InvScaleFactor mul dup ] 0 setdash } bind def
/dotted { [1 InvScaleFactor mul 6 InvScaleFactor mul] 0 setdash } bind def
/invis {/fill {newpath} def /stroke {newpath} def /show {pop newpath} def} bind def
/bold { 2 setlinewidth } bind def
/filled { } bind def
/unfilled { } bind def
/rounded { } bind def
/diagonals { } bind def
/tapered { } bind def

% hooks for setting color 
/nodecolor { sethsbcolor } bind def
/edgecolor { sethsbcolor } bind def
/graphcolor { sethsbcolor } bind def
/nopcolor {pop pop pop} bind def

/beginpage {	% i j npages
	/npages exch def
	/j exch def
	/i exch def
	/str 10 string def
	npages 1 gt {
		gsave
			coordfont setfont
			0 0 moveto
			(\() show i str cvs show (,) show j str cvs show (\)) show
		grestore
	} if
} bind def

/set_font {
	findfont exch
	scalefont setfont
} def

% draw text fitted to its expected width
/alignedtext {			% width text
	/text exch def
	/width exch def
	gsave
		width 0 gt {
			[] 0 setdash
			text stringwidth pop width exch sub text length div 0 text ashow
		} if
	grestore
} def

/boxprim {				% xcorner ycorner xsize ysize
		4 2 roll
		moveto
		2 copy
		exch 0 rlineto
		0 exch rlineto
		pop neg 0 rlineto
		closepath
} bind def

/ellipse_path {
	/ry exch def
	/rx exch def
	/y exch def
	/x exch def
	matrix currentmatrix
	newpath
	x y translate
	rx ry scale
	0 0 1 0 360 arc
	setmatrix
} bind def

/endpage { showpage } bind def
/showpage { } def

/layercolorseq
	[	% layer color sequence - darkest to lightest
		[0 0 0]
		[.2 .8 .8]
		[.4 .8 .8]
		[.6 .8 .8]
		[.8 .8 .8]
	]
def

/layerlen layercolorseq length def

/setlayer {/maxlayer exch def /curlayer exch def
	layercolorseq curlayer 1 sub layerlen mod get
	aload pop sethsbcolor
	/nodecolor {nopcolor} def
	/edgecolor {nopcolor} def
	/graphcolor {nopcolor} def
} bind def

/onlayer { curlayer ne {invis} if } def

/onlayers {
	/myupper exch def
	/mylower exch def
	curlayer mylower lt
	curlayer myupper gt
	or
	{invis} if
} def

/curlayer 0 def

%%EndResource
%%EndProlog
%%BeginSetup
14 default-font-family set_font
1 setmiterlimit
% /arrowlength 10 def
% /arrowwidth 5 def

% make sure pdfmark is harmless for PS-interpreters other than Distiller
/pdfmark where {pop} {userdict /pdfmark /cleartomark load put} ifelse
% make '<<' and '>>' safe on PS Level 1 devices
/languagelevel where {pop languagelevel}{1} ifelse
2 lt {
    userdict (<<) cvn ([) cvn load put
    userdict (>>) cvn ([) cvn load put
} if

%%EndSetup
setupLatin1
%%Page: 1 1
%%PageBoundingBox: 36 36 314 224
%%PageOrientation: Portrait
0 0 1 beginpage
gsave
36 36 278 188 boxprim clip newpath
1 1 set_scale 0 rotate 40 41 translate
% node0
gsave
1 setlinewidth
0 0 0 nodecolor
135 162 27 18 ellipse_path stroke
0 0 0 nodecolor
14 /Times-Roman set_font
127.5 158.3 moveto 15 (46) alignedtext
grestore
% node1
gsave
1 setlinewidth
0 0 0 nodecolor
99 90 27 18 ellipse_path stroke
0 0 0 nodecolor
14 /Times-Roman set_font
91.5 86.3 moveto 15 (58) alignedtext
grestore
% node0->node1
gsave
1 setlinewidth
0 0 0 edgecolor
newpath 126.65 144.76 moveto
122.29 136.28 116.85 125.71 111.96 116.2 curveto
stroke
0 0 0 edgecolor
newpath 114.99 114.44 moveto
107.3 107.15 lineto
108.77 117.64 lineto
closepath fill
1 setlinewidth
solid
0 0 0 edgecolor
newpath 114.99 114.44 moveto
107.3 107.15 lineto
108.77 117.64 lineto
closepath stroke
grestore
% node2
gsave
1 setlinewidth
0 0 0 nodecolor
171 90 27 18 ellipse_path stroke
0 0 0 nodecolor
14 /Times-Roman set_font
163.5 86.3 moveto 15 (66) alignedtext
grestore
% node0->node2
gsave
1 setlinewidth
0 0 0 edgecolor
newpath 143.35 144.76 moveto
147.71 136.28 153.15 125.71 158.04 116.2 curveto
stroke
0 0 0 edgecolor
newpath 161.23 117.64 moveto
162.7 107.15 lineto
155.01 114.44 lineto
closepath fill
1 setlinewidth
solid
0 0 0 edgecolor
newpath 161.23 117.64 moveto
162.7 107.15 lineto
155.01 114.44 lineto
closepath stroke
grestore
% node3
gsave
1 setlinewidth
0 0 0 nodecolor
27 18 27 18 ellipse_path stroke
0 0 0 nodecolor
14 /Times-Roman set_font
19.5 14.3 moveto 15 (94) alignedtext
grestore
% node1->node3
gsave
1 setlinewidth
0 0 0 edgecolor
newpath 84.43 74.83 moveto
74.25 64.94 60.48 51.55 48.97 40.36 curveto
stroke
0 0 0 edgecolor
newpath 51.41 37.85 moveto
41.8 33.38 lineto
46.53 42.87 lineto
closepath fill
1 setlinewidth
solid
0 0 0 edgecolor
newpath 51.41 37.85 moveto
41.8 33.38 lineto
46.53 42.87 lineto
closepath stroke
grestore
% node4
gsave
1 setlinewidth
0 0 0 nodecolor
99 18 27 18 ellipse_path stroke
0 0 0 nodecolor
14 /Times-Roman set_font
91.5 14.3 moveto 15 (87) alignedtext
grestore
% node1->node4
gsave
1 setlinewidth
0 0 0 edgecolor
newpath 99 71.7 moveto
99 63.98 99 54.71 99 46.11 curveto
stroke
0 0 0 edgecolor
newpath 102.5 46.1 moveto
99 36.1 lineto
95.5 46.1 lineto
closepath fill
1 setlinewidth
solid
0 0 0 edgecolor
newpath 102.5 46.1 moveto
99 36.1 lineto
95.5 46.1 lineto
closepath stroke
grestore
% node5
gsave
1 setlinewidth
0 0 0 nodecolor
171 18 27 18 ellipse_path stroke
0 0 0 nodecolor
14 /Times-Roman set_font
163.5 14.3 moveto 15 (79) alignedtext
grestore
% node2->node5
gsave
1 setlinewidth
0 0 0 edgecolor
newpath 171 71.7 moveto
171 63.98 171 54.71 171 46.11 curveto
stroke
0 0 0 edgecolor
newpath 174.5 46.1 moveto
171 36.1 lineto
167.5 46.1 lineto
closepath fill
1 setlinewidth
solid
0 0 0 edgecolor
newpath 174.5 46.1 moveto
171 36.1 lineto
167.5 46.1 lineto
closepath stroke
grestore
% null
gsave
0 0 0 nodecolor
14 /Times-Roman set_font
230.5 14.3 moveto 25 (Null) alignedtext
grestore
% node2->null
gsave
1 setlinewidth
0 0 0 edgecolor
newpath 185.57 74.83 moveto
194.92 65.75 207.3 53.71 218.17 43.14 curveto
stroke
0 0 0 edgecolor
newpath 220.67 45.59 moveto
225.4 36.11 lineto
215.79 40.57 lineto
closepath fill
1 setlinewidth
solid
0 0 0 edgecolor
newpath 220.67 45.59 moveto
225.4 36.11 lineto
215.79 40.57 lineto
closepath stroke
grestore
endpage
showpage
grestore
%%PageTrailer
%%EndPage: 1
%%Trailer
end
restore
%%EOF
